…
3C. 5 popular stations Make a table showing the 5 most popular starting
stations for July 2024; include the number of rides originating from
these stations.

``` r
jul_2024 %>% 
  group_by(start_station_name) %>% 
  summarise(count = n())
```

    ## # A tibble: 2,057 × 2
    ##    start_station_name count
    ##    <chr>              <int>
    ##  1 1 Ave & E 110 St      33
    ##  2 1 Ave & E 118 St      21
    ##  3 1 Ave & E 16 St       73
    ##  4 1 Ave & E 18 St       75
    ##  5 1 Ave & E 30 St       57
    ##  6 1 Ave & E 38 St       78
    ##  7 1 Ave & E 39 St       68
    ##  8 1 Ave & E 44 St       17
    ##  9 1 Ave & E 6 St        85
    ## 10 1 Ave & E 62 St       79
    ## # ℹ 2,047 more rows
…
